{
    "KPackageStructure": "KWin/WindowSwitcher",
    "KPlugin": {
        "Authors": [
            {
                "Email": "notmart@gmail.com",
                "Name": "Marco Martin",
                "Name[az]": "Marco Martin",
                "Name[ca]": "Marco Martin",
                "Name[cs]": "Marco Martin",
                "Name[en_GB]": "Marco Martin",
                "Name[es]": "Marco Martin",
                "Name[eu]": "Marco Martin",
                "Name[fr]": "Marco Martin",
                "Name[it]": "Marco Martin",
                "Name[ko]": "Marco Martin",
                "Name[nl]": "Marco Martin",
                "Name[pl]": "Marco Martin",
                "Name[pt]": "Marco Martin",
                "Name[sk]": "Marco Martin",
                "Name[sl]": "Marco Martin",
                "Name[sv]": "Marco Martin",
                "Name[uk]": "Marco Martin",
                "Name[vi]": "Marco Martin",
                "Name[x-test]": "xxMarco Martinxx",
                "Name[zh_CN]": "Marco Martin"
            }
        ],
        "Name": "KWin Window Switcher",
        "Name[az]": "KWin pəncərə dəyişdiricisi",
        "Name[ca]": "Commutador de finestres del KWin",
        "Name[cs]": "Přepínač oken KWin",
        "Name[en_GB]": "KWin Window Switcher",
        "Name[es]": "Selector de ventanas de KWin",
        "Name[eu]": "KWin leiho-aldatzailea",
        "Name[fr]": "Sélecteur de fenêtres de KWin",
        "Name[it]": "Scambiafinestre di KWin",
        "Name[ko]": "KWin 창 전환기",
        "Name[nl]": "KWin-vensterwisselaar",
        "Name[pl]": "Przełącznik okien KWin",
        "Name[sk]": "KWin Prepínač okien",
        "Name[sl]": "KWin Window Switcher",
        "Name[sv]": "Kwin-fönsterbyte",
        "Name[uk]": "Перемикач вікон KWin",
        "Name[vi]": "Trình chuyển cửa sổ KWin",
        "Name[x-test]": "xxKWin Window Switcherxx",
        "Name[zh_CN]": "KWin 窗口切换器",
        "Version": "1"
    }
}
